{"name":"getUsersTest","id":"com.mycompany.app.AppTest:getUsersTest","testCaseName":"com.mycompany.app.AppTest","testSteps":[{"number":1,"description":"michael el trainer executes a GET on the resource /users?page\u003d1","duration":539,"startTime":"2020-04-27T14:05:02.293-05:00[America/Bogota]","result":"SUCCESS","precondition":false,"children":[{"number":2,"description":"GET https://reqres.in/api/users?page\u003d1\r\r","duration":0,"startTime":"2020-04-27T14:05:02.831-05:00[America/Bogota]","result":"SUCCESS","restQuery":{"method":"GET","path":"https://reqres.in/api/users?page\u003d1\r\r","content":"\r","contentType":"application/json","requestHeaders":"header1\u003dvalue1\r\n\t\t\t\tAccept\u003d*/*\r\n\t\t\t\tContent-Type\u003dapplication/json; charset\u003dUTF-8\r\r","requestCookies":"\r\r","responseHeaders":"Date: Mon, 27 Apr 2020 19:05:27 GMT\nContent-Type: application/json; charset\u003dutf-8\nTransfer-Encoding: chunked\nConnection: keep-alive\nSet-Cookie: __cfduid\u003dd3c6d44525144a85d4a801586aff597241588014327; expires\u003dWed, 27-May-20 19:05:27 GMT; path\u003d/; domain\u003d.reqres.in; HttpOnly; SameSite\u003dLax; Secure\nX-Powered-By: Express\nAccess-Control-Allow-Origin: *\nEtag: W/\"4c5-znzuruTKwnH4068T7ikF88YcCME\"\nVia: 1.1 vegur\nCache-Control: max-age\u003d14400\nCF-Cache-Status: HIT\nAge: 3511\nExpect-CT: max-age\u003d604800, report-uri\u003d\"https://report-uri.cloudflare.com/cdn-cgi/beacon/expect-ct\"\nVary: Accept-Encoding\nServer: cloudflare\nCF-RAY: 58aad0ad4ec1d529-MIA\nContent-Encoding: gzip\ncf-request-id: 025ea0c0480000d529091fa200000001\r","responseCookies":"__cfduid\u003dd3c6d44525144a85d4a801586aff597241588014327;Path\u003d/;Domain\u003d.reqres.in;Secure;HttpOnly;Expires\u003d5/27/20 7:05 PM\r","responseBody":"{\n    \"page\": 1,\n    \"per_page\": 6,\n    \"total\": 12,\n    \"total_pages\": 2,\n    \"data\": [\n        {\n            \"id\": 1,\n            \"email\": \"george.bluth@reqres.in\",\n            \"first_name\": \"George\",\n            \"last_name\": \"Bluth\",\n            \"avatar\": \"https://s3.amazonaws.com/uifaces/faces/twitter/calebogden/128.jpg\"\n        },\n        {\n            \"id\": 2,\n            \"email\": \"janet.weaver@reqres.in\",\n            \"first_name\": \"Janet\",\n            \"last_name\": \"Weaver\",\n            \"avatar\": \"https://s3.amazonaws.com/uifaces/faces/twitter/josephstein/128.jpg\"\n        },\n        {\n            \"id\": 3,\n            \"email\": \"emma.wong@reqres.in\",\n            \"first_name\": \"Emma\",\n            \"last_name\": \"Wong\",\n            \"avatar\": \"https://s3.amazonaws.com/uifaces/faces/twitter/olegpogodaev/128.jpg\"\n        },\n        {\n            \"id\": 4,\n            \"email\": \"eve.holt@reqres.in\",\n            \"first_name\": \"Eve\",\n            \"last_name\": \"Holt\",\n            \"avatar\": \"https://s3.amazonaws.com/uifaces/faces/twitter/marcoramires/128.jpg\"\n        },\n        {\n            \"id\": 5,\n            \"email\": \"charles.morris@reqres.in\",\n            \"first_name\": \"Charles\",\n            \"last_name\": \"Morris\",\n            \"avatar\": \"https://s3.amazonaws.com/uifaces/faces/twitter/stephenmoon/128.jpg\"\n        },\n        {\n            \"id\": 6,\n            \"email\": \"tracey.ramos@reqres.in\",\n            \"first_name\": \"Tracey\",\n            \"last_name\": \"Ramos\",\n            \"avatar\": \"https://s3.amazonaws.com/uifaces/faces/twitter/bigmancho/128.jpg\"\n        }\n    ],\n    \"ad\": {\n        \"company\": \"StatusCode Weekly\",\n        \"url\": \"http://statuscode.org/\",\n        \"text\": \"A weekly newsletter focusing on software development, infrastructure, the server, performance, and the stack end of things.\"\n    }\n}","statusCode":200},"precondition":false}]},{"number":3,"description":"Then el c\u0026oacute;digo de respuesta should be (200)","duration":1,"startTime":"2020-04-27T14:05:02.837-05:00[America/Bogota]","result":"SUCCESS","precondition":false},{"number":4,"description":"Then usuario no es nulo should be not null","duration":1,"startTime":"2020-04-27T14:05:02.850-05:00[America/Bogota]","result":"SUCCESS","precondition":false},{"number":5,"description":"Then El email del usuario should be \u0027george.bluth@reqres.in\u0027","duration":0,"startTime":"2020-04-27T14:05:02.856-05:00[America/Bogota]","result":"SUCCESS","precondition":false},{"number":6,"description":"Then El avatar del usuario should be \u0027https://s3.amazonaws.com/uifaces/faces/twitter/calebogden/128.jpg\u0027","duration":0,"startTime":"2020-04-27T14:05:02.858-05:00[America/Bogota]","result":"SUCCESS","precondition":false}],"userStory":{"id":"com.mycompany.app.AppTest","storyName":"App test","storyClassName":"com.mycompany.app.AppTest","path":"com.mycompany.app","type":"story"},"featureTag":{"name":"App/App test","type":"story"},"title":"Get users test","tags":[{"name":"App/App test","type":"story"}],"startTime":"2020-04-27T14:05:02.254-05:00[America/Bogota]","duration":605,"projectKey":"","manual":false,"testSource":"JUnit","actors":[{"name":"michael el trainer","can":["call an API at https://reqres.in/api"]}],"result":"SUCCESS"}